{
  "result": {
    "rows": [
      {
        "location_id": null,
        "system_record_state": "active",
        "system_ctime": 1507006183,
        "system_modtime": 1553939563,
        "system_overpayment_balance": null,
        "name": "Verdant",
        "price_list_disclaimer": null,
        "brand_color": "#283138",
        "is_single_building": 1,
        "adr_street_number": "78",
        "adr_street_name": "Stirling Street",
        "adr_suburb_or_town": "Perth WA 6000",
        "adr_state_or_region": null,
        "adr_locality": null,
        "adr_postcode": null,
        "adr_country": "aus",
        "developer_name": "Stirling Capital Pty Ltd",
        "terms_of_sale": null,
        "system_owner_user": {
          "id": "17685",
          "_name": "Stirling Capital",
          "_first_name": "Stirling",
          "_last_name": "Capital",
          "_email_address": "sales@stirlingcapital.com.au"
        },
        "system_modified_user": {
          "id": "19184",
          "_name": "Brooke Reinecke",
          "_first_name": "Brooke",
          "_last_name": "Reinecke",
          "_email_address": "brooke@stirlingcapital.com.au"
        },
        "system_created_user": {
          "id": "13393",
          "_name": "Toni Tate",
          "_first_name": "Toni",
          "_last_name": "Tate",
          "_email_address": "toni@stirlingcapital.com.au"
        },
        "developer_logo": {
          "uri": "rexlive:\/\/1155\/projects\/337\/images\/Stirling-Logo-RGB_9256-0324-e148-bdec-188c-5eb7-c937-7e03_20190330075224.png",
          "_url": "\/\/d1tc5nu51f8a53.cloudfront.net\/app\/livestore\/accounts\/1155\/projects\/337\/images\/Stirling-Logo-RGB_9256-0324-e148-bdec-188c-5eb7-c937-7e03_20190330075224.png",
          "_thumbs": {
            "800x400": {
              "uri": "rexlive:\/\/1155\/projects\/337\/images\/Stirling-Logo-RGB_9256-0324-e148-bdec-188c-5eb7-c937-7e03_20190330075224_800x400.png",
              "_url": "\/\/d1tc5nu51f8a53.cloudfront.net\/app\/livestore\/accounts\/1155\/projects\/337\/images\/Stirling-Logo-RGB_9256-0324-e148-bdec-188c-5eb7-c937-7e03_20190330075224_800x400.png"
            },
            "500x250": {
              "uri": "rexlive:\/\/1155\/projects\/337\/images\/Stirling-Logo-RGB_9256-0324-e148-bdec-188c-5eb7-c937-7e03_20190330075224_500x250.png",
              "_url": "\/\/d1tc5nu51f8a53.cloudfront.net\/app\/livestore\/accounts\/1155\/projects\/337\/images\/Stirling-Logo-RGB_9256-0324-e148-bdec-188c-5eb7-c937-7e03_20190330075224_500x250.png"
            },
            "400x200": {
              "uri": "rexlive:\/\/1155\/projects\/337\/images\/Stirling-Logo-RGB_9256-0324-e148-bdec-188c-5eb7-c937-7e03_20190330075224_400x200.png",
              "_url": "\/\/d1tc5nu51f8a53.cloudfront.net\/app\/livestore\/accounts\/1155\/projects\/337\/images\/Stirling-Logo-RGB_9256-0324-e148-bdec-188c-5eb7-c937-7e03_20190330075224_400x200.png"
            },
            "200x100": {
              "uri": "rexlive:\/\/1155\/projects\/337\/images\/Stirling-Logo-RGB_9256-0324-e148-bdec-188c-5eb7-c937-7e03_20190330075224_200x100.png",
              "_url": "\/\/d1tc5nu51f8a53.cloudfront.net\/app\/livestore\/accounts\/1155\/projects\/337\/images\/Stirling-Logo-RGB_9256-0324-e148-bdec-188c-5eb7-c937-7e03_20190330075224_200x100.png"
            }
          }
        },
        "estate_logo": {
          "uri": "rexlive:\/\/1155\/projects\/337\/images\/Verdant-Logo-Green_a15f-a2fe-8af0-1d74-95a4-c450-9014-3ff3_20190329124036.png",
          "_url": "\/\/d1tc5nu51f8a53.cloudfront.net\/app\/livestore\/accounts\/1155\/projects\/337\/images\/Verdant-Logo-Green_a15f-a2fe-8af0-1d74-95a4-c450-9014-3ff3_20190329124036.png",
          "_thumbs": {
            "800x400": {
              "uri": "rexlive:\/\/1155\/projects\/337\/images\/Verdant-Logo-Green_a15f-a2fe-8af0-1d74-95a4-c450-9014-3ff3_20190329124036_800x400.png",
              "_url": "\/\/d1tc5nu51f8a53.cloudfront.net\/app\/livestore\/accounts\/1155\/projects\/337\/images\/Verdant-Logo-Green_a15f-a2fe-8af0-1d74-95a4-c450-9014-3ff3_20190329124036_800x400.png"
            },
            "500x250": {
              "uri": "rexlive:\/\/1155\/projects\/337\/images\/Verdant-Logo-Green_a15f-a2fe-8af0-1d74-95a4-c450-9014-3ff3_20190329124036_500x250.png",
              "_url": "\/\/d1tc5nu51f8a53.cloudfront.net\/app\/livestore\/accounts\/1155\/projects\/337\/images\/Verdant-Logo-Green_a15f-a2fe-8af0-1d74-95a4-c450-9014-3ff3_20190329124036_500x250.png"
            },
            "400x200": {
              "uri": "rexlive:\/\/1155\/projects\/337\/images\/Verdant-Logo-Green_a15f-a2fe-8af0-1d74-95a4-c450-9014-3ff3_20190329124036_400x200.png",
              "_url": "\/\/d1tc5nu51f8a53.cloudfront.net\/app\/livestore\/accounts\/1155\/projects\/337\/images\/Verdant-Logo-Green_a15f-a2fe-8af0-1d74-95a4-c450-9014-3ff3_20190329124036_400x200.png"
            },
            "200x100": {
              "uri": "rexlive:\/\/1155\/projects\/337\/images\/Verdant-Logo-Green_a15f-a2fe-8af0-1d74-95a4-c450-9014-3ff3_20190329124036_200x100.png",
              "_url": "\/\/d1tc5nu51f8a53.cloudfront.net\/app\/livestore\/accounts\/1155\/projects\/337\/images\/Verdant-Logo-Green_a15f-a2fe-8af0-1d74-95a4-c450-9014-3ff3_20190329124036_200x100.png"
            }
          }
        },
        "size": {
          "id": "300",
          "text": "101-300 units\/blocks"
        },
        "type": {
          "id": "apartments_highrise",
          "text": "Apartments (Highrise)"
        },
        "contacts": [],
        "_security_user_rights": [],
        "etag": "337-1553939563",
        "_id": 337
      },
      {
        "location_id": null,
        "system_record_state": "active",
        "system_ctime": 1507007912,
        "system_modtime": 1553469841,
        "system_overpayment_balance": null,
        "name": "Cirque",
        "price_list_disclaimer": null,
        "brand_color": "#525d77",
        "is_single_building": 1,
        "adr_street_number": "63",
        "adr_street_name": "Kishorn Road",
        "adr_suburb_or_town": "Mount Pleasant WA 6153",
        "adr_state_or_region": null,
        "adr_locality": null,
        "adr_postcode": null,
        "adr_country": "aus",
        "developer_name": "Stirling Capital Pty Ltd",
        "terms_of_sale": null,
        "system_owner_user": {
          "id": "17685",
          "_name": "Stirling Capital",
          "_first_name": "Stirling",
          "_last_name": "Capital",
          "_email_address": "sales@stirlingcapital.com.au"
        },
        "system_modified_user": {
          "id": "19184",
          "_name": "Brooke Reinecke",
          "_first_name": "Brooke",
          "_last_name": "Reinecke",
          "_email_address": "brooke@stirlingcapital.com.au"
        },
        "system_created_user": {
          "id": "13393",
          "_name": "Toni Tate",
          "_first_name": "Toni",
          "_last_name": "Tate",
          "_email_address": "toni@stirlingcapital.com.au"
        },
        "developer_logo": {
          "uri": "rexlive:\/\/1155\/projects\/338\/images\/Stirling-Logo-RGB_8065261207_20171003031806.png",
          "_url": "\/\/d1tc5nu51f8a53.cloudfront.net\/app\/livestore\/accounts\/1155\/projects\/338\/images\/Stirling-Logo-RGB_8065261207_20171003031806.png",
          "_thumbs": {
            "800x400": {
              "uri": "rexlive:\/\/1155\/projects\/338\/images\/Stirling-Logo-RGB_8065261207_20171003031806_800x400.png",
              "_url": "\/\/d1tc5nu51f8a53.cloudfront.net\/app\/livestore\/accounts\/1155\/projects\/338\/images\/Stirling-Logo-RGB_8065261207_20171003031806_800x400.png"
            },
            "500x250": {
              "uri": "rexlive:\/\/1155\/projects\/338\/images\/Stirling-Logo-RGB_8065261207_20171003031806_500x250.png",
              "_url": "\/\/d1tc5nu51f8a53.cloudfront.net\/app\/livestore\/accounts\/1155\/projects\/338\/images\/Stirling-Logo-RGB_8065261207_20171003031806_500x250.png"
            },
            "400x200": {
              "uri": "rexlive:\/\/1155\/projects\/338\/images\/Stirling-Logo-RGB_8065261207_20171003031806_400x200.png",
              "_url": "\/\/d1tc5nu51f8a53.cloudfront.net\/app\/livestore\/accounts\/1155\/projects\/338\/images\/Stirling-Logo-RGB_8065261207_20171003031806_400x200.png"
            },
            "200x100": {
              "uri": "rexlive:\/\/1155\/projects\/338\/images\/Stirling-Logo-RGB_8065261207_20171003031806_200x100.png",
              "_url": "\/\/d1tc5nu51f8a53.cloudfront.net\/app\/livestore\/accounts\/1155\/projects\/338\/images\/Stirling-Logo-RGB_8065261207_20171003031806_200x100.png"
            }
          }
        },
        "estate_logo": {
          "uri": "rexlive:\/\/1155\/projects\/338\/images\/CIRQUE_Master_GOLD_R_952727958_20171003031827.jpg",
          "_url": "\/\/d1tc5nu51f8a53.cloudfront.net\/app\/livestore\/accounts\/1155\/projects\/338\/images\/CIRQUE_Master_GOLD_R_952727958_20171003031827.jpg",
          "_thumbs": {
            "800x400": {
              "uri": "rexlive:\/\/1155\/projects\/338\/images\/CIRQUE_Master_GOLD_R_952727958_20171003031827_800x400.jpg",
              "_url": "\/\/d1tc5nu51f8a53.cloudfront.net\/app\/livestore\/accounts\/1155\/projects\/338\/images\/CIRQUE_Master_GOLD_R_952727958_20171003031827_800x400.jpg"
            },
            "500x250": {
              "uri": "rexlive:\/\/1155\/projects\/338\/images\/CIRQUE_Master_GOLD_R_952727958_20171003031827_500x250.jpg",
              "_url": "\/\/d1tc5nu51f8a53.cloudfront.net\/app\/livestore\/accounts\/1155\/projects\/338\/images\/CIRQUE_Master_GOLD_R_952727958_20171003031827_500x250.jpg"
            },
            "400x200": {
              "uri": "rexlive:\/\/1155\/projects\/338\/images\/CIRQUE_Master_GOLD_R_952727958_20171003031827_400x200.jpg",
              "_url": "\/\/d1tc5nu51f8a53.cloudfront.net\/app\/livestore\/accounts\/1155\/projects\/338\/images\/CIRQUE_Master_GOLD_R_952727958_20171003031827_400x200.jpg"
            },
            "200x100": {
              "uri": "rexlive:\/\/1155\/projects\/338\/images\/CIRQUE_Master_GOLD_R_952727958_20171003031827_200x100.jpg",
              "_url": "\/\/d1tc5nu51f8a53.cloudfront.net\/app\/livestore\/accounts\/1155\/projects\/338\/images\/CIRQUE_Master_GOLD_R_952727958_20171003031827_200x100.jpg"
            }
          }
        },
        "size": {
          "id": "300",
          "text": "101-300 units\/blocks"
        },
        "type": {
          "id": "apartments_highrise",
          "text": "Apartments (Highrise)"
        },
        "contacts": [],
        "_security_user_rights": [],
        "etag": "338-1553469841",
        "_id": 338
      },
      {
        "location_id": null,
        "system_record_state": "active",
        "system_ctime": 1507008203,
        "system_modtime": 1553837661,
        "system_overpayment_balance": null,
        "name": "26 on Charles",
        "price_list_disclaimer": null,
        "brand_color": "#d12030",
        "is_single_building": 1,
        "adr_street_number": "26",
        "adr_street_name": "Charles Street",
        "adr_suburb_or_town": "South Perth WA 6151",
        "adr_state_or_region": null,
        "adr_locality": null,
        "adr_postcode": null,
        "adr_country": "aus",
        "developer_name": "Stirling Capital Pty Ltd",
        "terms_of_sale": null,
        "system_owner_user": {
          "id": "17685",
          "_name": "Stirling Capital",
          "_first_name": "Stirling",
          "_last_name": "Capital",
          "_email_address": "sales@stirlingcapital.com.au"
        },
        "system_modified_user": {
          "id": "19184",
          "_name": "Brooke Reinecke",
          "_first_name": "Brooke",
          "_last_name": "Reinecke",
          "_email_address": "brooke@stirlingcapital.com.au"
        },
        "system_created_user": {
          "id": "13393",
          "_name": "Toni Tate",
          "_first_name": "Toni",
          "_last_name": "Tate",
          "_email_address": "toni@stirlingcapital.com.au"
        },
        "developer_logo": {
          "uri": "rexlive:\/\/1155\/projects\/339\/images\/Stirling-Logo-RGB_7939966212_20171003032128.png",
          "_url": "\/\/d1tc5nu51f8a53.cloudfront.net\/app\/livestore\/accounts\/1155\/projects\/339\/images\/Stirling-Logo-RGB_7939966212_20171003032128.png",
          "_thumbs": {
            "800x400": {
              "uri": "rexlive:\/\/1155\/projects\/339\/images\/Stirling-Logo-RGB_7939966212_20171003032128_800x400.png",
              "_url": "\/\/d1tc5nu51f8a53.cloudfront.net\/app\/livestore\/accounts\/1155\/projects\/339\/images\/Stirling-Logo-RGB_7939966212_20171003032128_800x400.png"
            },
            "500x250": {
              "uri": "rexlive:\/\/1155\/projects\/339\/images\/Stirling-Logo-RGB_7939966212_20171003032128_500x250.png",
              "_url": "\/\/d1tc5nu51f8a53.cloudfront.net\/app\/livestore\/accounts\/1155\/projects\/339\/images\/Stirling-Logo-RGB_7939966212_20171003032128_500x250.png"
            },
            "400x200": {
              "uri": "rexlive:\/\/1155\/projects\/339\/images\/Stirling-Logo-RGB_7939966212_20171003032128_400x200.png",
              "_url": "\/\/d1tc5nu51f8a53.cloudfront.net\/app\/livestore\/accounts\/1155\/projects\/339\/images\/Stirling-Logo-RGB_7939966212_20171003032128_400x200.png"
            },
            "200x100": {
              "uri": "rexlive:\/\/1155\/projects\/339\/images\/Stirling-Logo-RGB_7939966212_20171003032128_200x100.png",
              "_url": "\/\/d1tc5nu51f8a53.cloudfront.net\/app\/livestore\/accounts\/1155\/projects\/339\/images\/Stirling-Logo-RGB_7939966212_20171003032128_200x100.png"
            }
          }
        },
        "estate_logo": {
          "uri": "rexlive:\/\/1155\/projects\/339\/images\/26-Charles-Logo_9343785431_20171003032318.jpg",
          "_url": "\/\/d1tc5nu51f8a53.cloudfront.net\/app\/livestore\/accounts\/1155\/projects\/339\/images\/26-Charles-Logo_9343785431_20171003032318.jpg",
          "_thumbs": {
            "800x400": {
              "uri": "rexlive:\/\/1155\/projects\/339\/images\/26-Charles-Logo_9343785431_20171003032318_800x400.jpg",
              "_url": "\/\/d1tc5nu51f8a53.cloudfront.net\/app\/livestore\/accounts\/1155\/projects\/339\/images\/26-Charles-Logo_9343785431_20171003032318_800x400.jpg"
            },
            "500x250": {
              "uri": "rexlive:\/\/1155\/projects\/339\/images\/26-Charles-Logo_9343785431_20171003032318_500x250.jpg",
              "_url": "\/\/d1tc5nu51f8a53.cloudfront.net\/app\/livestore\/accounts\/1155\/projects\/339\/images\/26-Charles-Logo_9343785431_20171003032318_500x250.jpg"
            },
            "400x200": {
              "uri": "rexlive:\/\/1155\/projects\/339\/images\/26-Charles-Logo_9343785431_20171003032318_400x200.jpg",
              "_url": "\/\/d1tc5nu51f8a53.cloudfront.net\/app\/livestore\/accounts\/1155\/projects\/339\/images\/26-Charles-Logo_9343785431_20171003032318_400x200.jpg"
            },
            "200x100": {
              "uri": "rexlive:\/\/1155\/projects\/339\/images\/26-Charles-Logo_9343785431_20171003032318_200x100.jpg",
              "_url": "\/\/d1tc5nu51f8a53.cloudfront.net\/app\/livestore\/accounts\/1155\/projects\/339\/images\/26-Charles-Logo_9343785431_20171003032318_200x100.jpg"
            }
          }
        },
        "size": {
          "id": "100",
          "text": "Up to 100 units\/blocks"
        },
        "type": {
          "id": "apartments_lowrise",
          "text": "Apartments (Lowrise)"
        },
        "contacts": [],
        "_security_user_rights": [],
        "etag": "339-1553837661",
        "_id": 339
      },
      {
        "location_id": null,
        "system_record_state": "active",
        "system_ctime": 1507008361,
        "system_modtime": 1551328117,
        "system_overpayment_balance": null,
        "name": "Barque",
        "price_list_disclaimer": null,
        "brand_color": "#0d9ce0",
        "is_single_building": 1,
        "adr_street_number": "77",
        "adr_street_name": "Orsino Drive",
        "adr_suburb_or_town": "North Coogee WA 6163",
        "adr_state_or_region": null,
        "adr_locality": null,
        "adr_postcode": null,
        "adr_country": "aus",
        "developer_name": "Stirling Capital Pty Ltd",
        "terms_of_sale": null,
        "system_owner_user": {
          "id": "17685",
          "_name": "Stirling Capital",
          "_first_name": "Stirling",
          "_last_name": "Capital",
          "_email_address": "sales@stirlingcapital.com.au"
        },
        "system_modified_user": {
          "id": "19184",
          "_name": "Brooke Reinecke",
          "_first_name": "Brooke",
          "_last_name": "Reinecke",
          "_email_address": "brooke@stirlingcapital.com.au"
        },
        "system_created_user": {
          "id": "13393",
          "_name": "Toni Tate",
          "_first_name": "Toni",
          "_last_name": "Tate",
          "_email_address": "toni@stirlingcapital.com.au"
        },
        "developer_logo": {
          "uri": "rexlive:\/\/1155\/projects\/340\/images\/Stirling-Logo-RGB_9242067983_20171003032653.png",
          "_url": "\/\/d1tc5nu51f8a53.cloudfront.net\/app\/livestore\/accounts\/1155\/projects\/340\/images\/Stirling-Logo-RGB_9242067983_20171003032653.png",
          "_thumbs": {
            "800x400": {
              "uri": "rexlive:\/\/1155\/projects\/340\/images\/Stirling-Logo-RGB_9242067983_20171003032653_800x400.png",
              "_url": "\/\/d1tc5nu51f8a53.cloudfront.net\/app\/livestore\/accounts\/1155\/projects\/340\/images\/Stirling-Logo-RGB_9242067983_20171003032653_800x400.png"
            },
            "500x250": {
              "uri": "rexlive:\/\/1155\/projects\/340\/images\/Stirling-Logo-RGB_9242067983_20171003032653_500x250.png",
              "_url": "\/\/d1tc5nu51f8a53.cloudfront.net\/app\/livestore\/accounts\/1155\/projects\/340\/images\/Stirling-Logo-RGB_9242067983_20171003032653_500x250.png"
            },
            "400x200": {
              "uri": "rexlive:\/\/1155\/projects\/340\/images\/Stirling-Logo-RGB_9242067983_20171003032653_400x200.png",
              "_url": "\/\/d1tc5nu51f8a53.cloudfront.net\/app\/livestore\/accounts\/1155\/projects\/340\/images\/Stirling-Logo-RGB_9242067983_20171003032653_400x200.png"
            },
            "200x100": {
              "uri": "rexlive:\/\/1155\/projects\/340\/images\/Stirling-Logo-RGB_9242067983_20171003032653_200x100.png",
              "_url": "\/\/d1tc5nu51f8a53.cloudfront.net\/app\/livestore\/accounts\/1155\/projects\/340\/images\/Stirling-Logo-RGB_9242067983_20171003032653_200x100.png"
            }
          }
        },
        "estate_logo": {
          "uri": "rexlive:\/\/1155\/projects\/340\/images\/Barque-logo-White_8704360680_20171003033853.png",
          "_url": "\/\/d1tc5nu51f8a53.cloudfront.net\/app\/livestore\/accounts\/1155\/projects\/340\/images\/Barque-logo-White_8704360680_20171003033853.png",
          "_thumbs": {
            "800x400": {
              "uri": "rexlive:\/\/1155\/projects\/340\/images\/Barque-logo-White_8704360680_20171003033853_800x400.png",
              "_url": "\/\/d1tc5nu51f8a53.cloudfront.net\/app\/livestore\/accounts\/1155\/projects\/340\/images\/Barque-logo-White_8704360680_20171003033853_800x400.png"
            },
            "500x250": {
              "uri": "rexlive:\/\/1155\/projects\/340\/images\/Barque-logo-White_8704360680_20171003033853_500x250.png",
              "_url": "\/\/d1tc5nu51f8a53.cloudfront.net\/app\/livestore\/accounts\/1155\/projects\/340\/images\/Barque-logo-White_8704360680_20171003033853_500x250.png"
            },
            "400x200": {
              "uri": "rexlive:\/\/1155\/projects\/340\/images\/Barque-logo-White_8704360680_20171003033853_400x200.png",
              "_url": "\/\/d1tc5nu51f8a53.cloudfront.net\/app\/livestore\/accounts\/1155\/projects\/340\/images\/Barque-logo-White_8704360680_20171003033853_400x200.png"
            },
            "200x100": {
              "uri": "rexlive:\/\/1155\/projects\/340\/images\/Barque-logo-White_8704360680_20171003033853_200x100.png",
              "_url": "\/\/d1tc5nu51f8a53.cloudfront.net\/app\/livestore\/accounts\/1155\/projects\/340\/images\/Barque-logo-White_8704360680_20171003033853_200x100.png"
            }
          }
        },
        "size": {
          "id": "100",
          "text": "Up to 100 units\/blocks"
        },
        "type": {
          "id": "apartments_lowrise",
          "text": "Apartments (Lowrise)"
        },
        "contacts": [],
        "_security_user_rights": [],
        "etag": "340-1551328117",
        "_id": 340
      },
      {
        "location_id": null,
        "system_record_state": "active",
        "system_ctime": 1526434800,
        "system_modtime": 1553823894,
        "system_overpayment_balance": null,
        "name": "Treehouse",
        "price_list_disclaimer": null,
        "brand_color": "#82503e",
        "is_single_building": 1,
        "adr_street_number": "18",
        "adr_street_name": "Hortus Way",
        "adr_suburb_or_town": "Jolimont WA 6014",
        "adr_state_or_region": null,
        "adr_locality": null,
        "adr_postcode": null,
        "adr_country": "aus",
        "developer_name": "Stirling Capital Pty Ltd",
        "terms_of_sale": null,
        "system_owner_user": {
          "id": "17685",
          "_name": "Stirling Capital",
          "_first_name": "Stirling",
          "_last_name": "Capital",
          "_email_address": "sales@stirlingcapital.com.au"
        },
        "system_modified_user": {
          "id": "19184",
          "_name": "Brooke Reinecke",
          "_first_name": "Brooke",
          "_last_name": "Reinecke",
          "_email_address": "brooke@stirlingcapital.com.au"
        },
        "system_created_user": {
          "id": "13393",
          "_name": "Toni Tate",
          "_first_name": "Toni",
          "_last_name": "Tate",
          "_email_address": "toni@stirlingcapital.com.au"
        },
        "developer_logo": {
          "uri": "rexlive:\/\/1155\/projects\/412\/images\/Stirling-Logo-RGB_4934266862_20180516114514.png",
          "_url": "\/\/d1tc5nu51f8a53.cloudfront.net\/app\/livestore\/accounts\/1155\/projects\/412\/images\/Stirling-Logo-RGB_4934266862_20180516114514.png",
          "_thumbs": {
            "800x400": {
              "uri": "rexlive:\/\/1155\/projects\/412\/images\/Stirling-Logo-RGB_4934266862_20180516114514_800x400.png",
              "_url": "\/\/d1tc5nu51f8a53.cloudfront.net\/app\/livestore\/accounts\/1155\/projects\/412\/images\/Stirling-Logo-RGB_4934266862_20180516114514_800x400.png"
            },
            "500x250": {
              "uri": "rexlive:\/\/1155\/projects\/412\/images\/Stirling-Logo-RGB_4934266862_20180516114514_500x250.png",
              "_url": "\/\/d1tc5nu51f8a53.cloudfront.net\/app\/livestore\/accounts\/1155\/projects\/412\/images\/Stirling-Logo-RGB_4934266862_20180516114514_500x250.png"
            },
            "400x200": {
              "uri": "rexlive:\/\/1155\/projects\/412\/images\/Stirling-Logo-RGB_4934266862_20180516114514_400x200.png",
              "_url": "\/\/d1tc5nu51f8a53.cloudfront.net\/app\/livestore\/accounts\/1155\/projects\/412\/images\/Stirling-Logo-RGB_4934266862_20180516114514_400x200.png"
            },
            "200x100": {
              "uri": "rexlive:\/\/1155\/projects\/412\/images\/Stirling-Logo-RGB_4934266862_20180516114514_200x100.png",
              "_url": "\/\/d1tc5nu51f8a53.cloudfront.net\/app\/livestore\/accounts\/1155\/projects\/412\/images\/Stirling-Logo-RGB_4934266862_20180516114514_200x100.png"
            }
          }
        },
        "estate_logo": {
          "uri": "rexlive:\/\/1155\/projects\/412\/images\/Treehouse-Jolimont_24f5-1309-a9d5-8121-e1e3-f751-58e1-a27b_20190329114440.jpg",
          "_url": "\/\/d1tc5nu51f8a53.cloudfront.net\/app\/livestore\/accounts\/1155\/projects\/412\/images\/Treehouse-Jolimont_24f5-1309-a9d5-8121-e1e3-f751-58e1-a27b_20190329114440.jpg",
          "_thumbs": {
            "800x400": {
              "uri": "rexlive:\/\/1155\/projects\/412\/images\/Treehouse-Jolimont_24f5-1309-a9d5-8121-e1e3-f751-58e1-a27b_20190329114440_800x400.jpg",
              "_url": "\/\/d1tc5nu51f8a53.cloudfront.net\/app\/livestore\/accounts\/1155\/projects\/412\/images\/Treehouse-Jolimont_24f5-1309-a9d5-8121-e1e3-f751-58e1-a27b_20190329114440_800x400.jpg"
            },
            "500x250": {
              "uri": "rexlive:\/\/1155\/projects\/412\/images\/Treehouse-Jolimont_24f5-1309-a9d5-8121-e1e3-f751-58e1-a27b_20190329114440_500x250.jpg",
              "_url": "\/\/d1tc5nu51f8a53.cloudfront.net\/app\/livestore\/accounts\/1155\/projects\/412\/images\/Treehouse-Jolimont_24f5-1309-a9d5-8121-e1e3-f751-58e1-a27b_20190329114440_500x250.jpg"
            },
            "400x200": {
              "uri": "rexlive:\/\/1155\/projects\/412\/images\/Treehouse-Jolimont_24f5-1309-a9d5-8121-e1e3-f751-58e1-a27b_20190329114440_400x200.jpg",
              "_url": "\/\/d1tc5nu51f8a53.cloudfront.net\/app\/livestore\/accounts\/1155\/projects\/412\/images\/Treehouse-Jolimont_24f5-1309-a9d5-8121-e1e3-f751-58e1-a27b_20190329114440_400x200.jpg"
            },
            "200x100": {
              "uri": "rexlive:\/\/1155\/projects\/412\/images\/Treehouse-Jolimont_24f5-1309-a9d5-8121-e1e3-f751-58e1-a27b_20190329114440_200x100.jpg",
              "_url": "\/\/d1tc5nu51f8a53.cloudfront.net\/app\/livestore\/accounts\/1155\/projects\/412\/images\/Treehouse-Jolimont_24f5-1309-a9d5-8121-e1e3-f751-58e1-a27b_20190329114440_200x100.jpg"
            }
          }
        },
        "size": {
          "id": "100",
          "text": "Up to 100 units\/blocks"
        },
        "type": {
          "id": "apartments_lowrise",
          "text": "Apartments (Lowrise)"
        },
        "contacts": [],
        "_security_user_rights": [],
        "etag": "412-1553823894",
        "_id": 412
      },
      {
        "location_id": null,
        "system_record_state": "active",
        "system_ctime": 1551102749,
        "system_modtime": 1553941333,
        "system_overpayment_balance": null,
        "name": "3 Ord Street",
        "price_list_disclaimer": null,
        "brand_color": "#009ca9",
        "is_single_building": 1,
        "adr_street_number": "3",
        "adr_street_name": "Ord Street",
        "adr_suburb_or_town": "West Perth WA 6005",
        "adr_state_or_region": null,
        "adr_locality": null,
        "adr_postcode": null,
        "adr_country": null,
        "developer_name": null,
        "terms_of_sale": null,
        "system_owner_user": {
          "id": "17351",
          "_name": "Luke Reinecke",
          "_first_name": "Luke",
          "_last_name": "Reinecke",
          "_email_address": "luke@stirlingcapital.com.au"
        },
        "system_modified_user": {
          "id": "19184",
          "_name": "Brooke Reinecke",
          "_first_name": "Brooke",
          "_last_name": "Reinecke",
          "_email_address": "brooke@stirlingcapital.com.au"
        },
        "system_created_user": {
          "id": "19184",
          "_name": "Brooke Reinecke",
          "_first_name": "Brooke",
          "_last_name": "Reinecke",
          "_email_address": "brooke@stirlingcapital.com.au"
        },
        "developer_logo": {
          "uri": "rexlive:\/\/1155\/projects\/544\/images\/Stirling-Logo-RGB_dc05-a9fe-5c90-0a21-3706-9730-62c2-3493_20190302053408.jpg",
          "_url": "\/\/d1tc5nu51f8a53.cloudfront.net\/app\/livestore\/accounts\/1155\/projects\/544\/images\/Stirling-Logo-RGB_dc05-a9fe-5c90-0a21-3706-9730-62c2-3493_20190302053408.jpg",
          "_thumbs": {
            "800x400": {
              "uri": "rexlive:\/\/1155\/projects\/544\/images\/Stirling-Logo-RGB_dc05-a9fe-5c90-0a21-3706-9730-62c2-3493_20190302053408_800x400.jpg",
              "_url": "\/\/d1tc5nu51f8a53.cloudfront.net\/app\/livestore\/accounts\/1155\/projects\/544\/images\/Stirling-Logo-RGB_dc05-a9fe-5c90-0a21-3706-9730-62c2-3493_20190302053408_800x400.jpg"
            },
            "500x250": {
              "uri": "rexlive:\/\/1155\/projects\/544\/images\/Stirling-Logo-RGB_dc05-a9fe-5c90-0a21-3706-9730-62c2-3493_20190302053408_500x250.jpg",
              "_url": "\/\/d1tc5nu51f8a53.cloudfront.net\/app\/livestore\/accounts\/1155\/projects\/544\/images\/Stirling-Logo-RGB_dc05-a9fe-5c90-0a21-3706-9730-62c2-3493_20190302053408_500x250.jpg"
            },
            "400x200": {
              "uri": "rexlive:\/\/1155\/projects\/544\/images\/Stirling-Logo-RGB_dc05-a9fe-5c90-0a21-3706-9730-62c2-3493_20190302053408_400x200.jpg",
              "_url": "\/\/d1tc5nu51f8a53.cloudfront.net\/app\/livestore\/accounts\/1155\/projects\/544\/images\/Stirling-Logo-RGB_dc05-a9fe-5c90-0a21-3706-9730-62c2-3493_20190302053408_400x200.jpg"
            },
            "200x100": {
              "uri": "rexlive:\/\/1155\/projects\/544\/images\/Stirling-Logo-RGB_dc05-a9fe-5c90-0a21-3706-9730-62c2-3493_20190302053408_200x100.jpg",
              "_url": "\/\/d1tc5nu51f8a53.cloudfront.net\/app\/livestore\/accounts\/1155\/projects\/544\/images\/Stirling-Logo-RGB_dc05-a9fe-5c90-0a21-3706-9730-62c2-3493_20190302053408_200x100.jpg"
            }
          }
        },
        "estate_logo": null,
        "size": {
          "id": "100",
          "text": "Up to 100 units\/blocks"
        },
        "type": {
          "id": "apartments_lowrise",
          "text": "Apartments (Lowrise)"
        },
        "contacts": [],
        "_security_user_rights": [],
        "etag": "544-1553941333",
        "_id": 544
      },
      {
        "location_id": null,
        "system_record_state": "active",
        "system_ctime": 1551326483,
        "system_modtime": 1551512329,
        "system_overpayment_balance": null,
        "name": "Lot 1015 Marina Village Apartments",
        "price_list_disclaimer": null,
        "brand_color": "#009ca9",
        "is_single_building": 1,
        "adr_street_number": "Lot 1015",
        "adr_street_name": "Pantheon Avenue",
        "adr_suburb_or_town": "North Coogee WA 6163",
        "adr_state_or_region": null,
        "adr_locality": null,
        "adr_postcode": null,
        "adr_country": null,
        "developer_name": "Stirling Capital Pty Ltd",
        "terms_of_sale": null,
        "system_owner_user": {
          "id": "17685",
          "_name": "Stirling Capital",
          "_first_name": "Stirling",
          "_last_name": "Capital",
          "_email_address": "sales@stirlingcapital.com.au"
        },
        "system_modified_user": {
          "id": "19184",
          "_name": "Brooke Reinecke",
          "_first_name": "Brooke",
          "_last_name": "Reinecke",
          "_email_address": "brooke@stirlingcapital.com.au"
        },
        "system_created_user": {
          "id": "19184",
          "_name": "Brooke Reinecke",
          "_first_name": "Brooke",
          "_last_name": "Reinecke",
          "_email_address": "brooke@stirlingcapital.com.au"
        },
        "developer_logo": {
          "uri": "rexlive:\/\/1155\/projects\/545\/images\/Stirling-Logo-RGB_9e40-2ef4-6910-facd-4e50-b744-1f28-04c1_20190302052022.jpg",
          "_url": "\/\/d1tc5nu51f8a53.cloudfront.net\/app\/livestore\/accounts\/1155\/projects\/545\/images\/Stirling-Logo-RGB_9e40-2ef4-6910-facd-4e50-b744-1f28-04c1_20190302052022.jpg",
          "_thumbs": {
            "800x400": {
              "uri": "rexlive:\/\/1155\/projects\/545\/images\/Stirling-Logo-RGB_9e40-2ef4-6910-facd-4e50-b744-1f28-04c1_20190302052022_800x400.jpg",
              "_url": "\/\/d1tc5nu51f8a53.cloudfront.net\/app\/livestore\/accounts\/1155\/projects\/545\/images\/Stirling-Logo-RGB_9e40-2ef4-6910-facd-4e50-b744-1f28-04c1_20190302052022_800x400.jpg"
            },
            "500x250": {
              "uri": "rexlive:\/\/1155\/projects\/545\/images\/Stirling-Logo-RGB_9e40-2ef4-6910-facd-4e50-b744-1f28-04c1_20190302052022_500x250.jpg",
              "_url": "\/\/d1tc5nu51f8a53.cloudfront.net\/app\/livestore\/accounts\/1155\/projects\/545\/images\/Stirling-Logo-RGB_9e40-2ef4-6910-facd-4e50-b744-1f28-04c1_20190302052022_500x250.jpg"
            },
            "400x200": {
              "uri": "rexlive:\/\/1155\/projects\/545\/images\/Stirling-Logo-RGB_9e40-2ef4-6910-facd-4e50-b744-1f28-04c1_20190302052022_400x200.jpg",
              "_url": "\/\/d1tc5nu51f8a53.cloudfront.net\/app\/livestore\/accounts\/1155\/projects\/545\/images\/Stirling-Logo-RGB_9e40-2ef4-6910-facd-4e50-b744-1f28-04c1_20190302052022_400x200.jpg"
            },
            "200x100": {
              "uri": "rexlive:\/\/1155\/projects\/545\/images\/Stirling-Logo-RGB_9e40-2ef4-6910-facd-4e50-b744-1f28-04c1_20190302052022_200x100.jpg",
              "_url": "\/\/d1tc5nu51f8a53.cloudfront.net\/app\/livestore\/accounts\/1155\/projects\/545\/images\/Stirling-Logo-RGB_9e40-2ef4-6910-facd-4e50-b744-1f28-04c1_20190302052022_200x100.jpg"
            }
          }
        },
        "estate_logo": {
          "uri": "rexlive:\/\/1155\/projects\/545\/images\/coming-soon-navy_1421-790f-0ecd-355c-07ca-e582-561d-566d_20190302052030.jpg",
          "_url": "\/\/d1tc5nu51f8a53.cloudfront.net\/app\/livestore\/accounts\/1155\/projects\/545\/images\/coming-soon-navy_1421-790f-0ecd-355c-07ca-e582-561d-566d_20190302052030.jpg",
          "_thumbs": {
            "800x400": {
              "uri": "rexlive:\/\/1155\/projects\/545\/images\/coming-soon-navy_1421-790f-0ecd-355c-07ca-e582-561d-566d_20190302052030_800x400.jpg",
              "_url": "\/\/d1tc5nu51f8a53.cloudfront.net\/app\/livestore\/accounts\/1155\/projects\/545\/images\/coming-soon-navy_1421-790f-0ecd-355c-07ca-e582-561d-566d_20190302052030_800x400.jpg"
            },
            "500x250": {
              "uri": "rexlive:\/\/1155\/projects\/545\/images\/coming-soon-navy_1421-790f-0ecd-355c-07ca-e582-561d-566d_20190302052030_500x250.jpg",
              "_url": "\/\/d1tc5nu51f8a53.cloudfront.net\/app\/livestore\/accounts\/1155\/projects\/545\/images\/coming-soon-navy_1421-790f-0ecd-355c-07ca-e582-561d-566d_20190302052030_500x250.jpg"
            },
            "400x200": {
              "uri": "rexlive:\/\/1155\/projects\/545\/images\/coming-soon-navy_1421-790f-0ecd-355c-07ca-e582-561d-566d_20190302052030_400x200.jpg",
              "_url": "\/\/d1tc5nu51f8a53.cloudfront.net\/app\/livestore\/accounts\/1155\/projects\/545\/images\/coming-soon-navy_1421-790f-0ecd-355c-07ca-e582-561d-566d_20190302052030_400x200.jpg"
            },
            "200x100": {
              "uri": "rexlive:\/\/1155\/projects\/545\/images\/coming-soon-navy_1421-790f-0ecd-355c-07ca-e582-561d-566d_20190302052030_200x100.jpg",
              "_url": "\/\/d1tc5nu51f8a53.cloudfront.net\/app\/livestore\/accounts\/1155\/projects\/545\/images\/coming-soon-navy_1421-790f-0ecd-355c-07ca-e582-561d-566d_20190302052030_200x100.jpg"
            }
          }
        },
        "size": {
          "id": "100",
          "text": "Up to 100 units\/blocks"
        },
        "type": {
          "id": "apartments_lowrise",
          "text": "Apartments (Lowrise)"
        },
        "contacts": [],
        "_security_user_rights": [],
        "etag": "545-1551512329",
        "_id": 545
      }
    ],
    "total": 7,
    "viewstate_id": null,
    "criteria": [
      {
        "name": "system_record_state",
        "value": "active"
      }
    ],
    "order_by": []
  },
  "error": null
}